{
  "family": "sd-backend",
  "networkMode": "bridge",
  "containerDefinitions": [
    {
      "name": "sd-backend",
      "image": "${BACKEND_IMAGE_NAME}",
      "portMappings": [
        {
          "hostPort": 3000,
          "protocol": "tcp",
          "containerPort": 3000
        }
      ],
      "essential": true
    },
    {
      "name": "sd-frontend",
      "image": "${FRONTEND_IMAGE_NAME}",
      "portMappings": [
        {
          "hostPort": 8080,
          "protocol": "tcp",
          "containerPort": 8080
        }
      ],
      "essential": true
    }
  ],
  "requiresCompatibilities": ["EC2"],
  "cpu": "128",
  "memory": "450"
}
