<svg width="512" height="512" viewBox="0 0 512 512" fill="none" xmlns="http://www.w3.org/2000/svg">
<path d="M370.759 503.172H141.241C131.487 503.172 123.586 495.271 123.586 485.517C123.586 475.763 131.487 467.862 141.241 467.862H370.758C380.512 467.862 388.413 475.763 388.413 485.517C388.414 495.272 380.513 503.172 370.759 503.172Z" fill="#25AE88"/>
<path d="M300.138 397.241V379.586H211.862V397.241C211.862 436.277 197.932 467.862 158.896 467.862H353.103C314.068 467.862 300.138 436.277 300.138 397.241Z" fill="#AFB6BB"/>
<path d="M485.508 397.241H26.492C11.864 397.241 0 385.377 0 370.75V317.793H512V370.75C512 385.377 500.136 397.241 485.508 397.241Z" fill="#E7ECED"/>
<path d="M282.483 370.759H229.517C224.644 370.759 220.689 366.804 220.689 361.931C220.689 357.058 224.644 353.103 229.517 353.103H282.483C287.356 353.103 291.311 357.058 291.311 361.931C291.311 366.804 287.356 370.759 282.483 370.759Z" fill="#25AE88"/>
<path d="M441.379 8.828H70.621H26.492C11.864 8.828 0 20.692 0 35.319V326.621H70.621H203.035H308.966H441.38H512V35.319C512 20.692 500.136 8.827 485.508 8.827H441.379V8.828Z" fill="#495D72"/>
<path d="M476.69 44.138H238.345V326.621H476.69V44.138Z" fill="#28384C"/>
<path d="M256 44.138H35.31V326.621H256V44.138Z" fill="#25AE88"/>
<path d="M132.405 300.138C131.081 300.138 129.73 299.838 128.459 299.211C124.098 297.031 122.333 291.725 124.513 287.364L150.996 234.399C153.176 230.038 158.491 228.273 162.843 230.453C167.204 232.633 168.969 237.939 166.789 242.3L140.306 295.265C138.761 298.355 135.645 300.138 132.405 300.138Z" fill="white"/>
<path d="M70.621 273.655C68.361 273.655 66.101 272.79 64.38 271.069C60.928 267.617 60.928 262.038 64.38 258.587L90.863 232.104C94.306 228.652 99.902 228.652 103.345 232.104C106.797 235.556 106.797 241.135 103.345 244.586L76.862 271.069C75.14 272.79 72.881 273.655 70.621 273.655Z" fill="white"/>
<path d="M97.103 300.138C94.843 300.138 92.583 299.273 90.862 297.552L64.38 271.069C60.928 267.617 60.928 262.038 64.38 258.587C67.823 255.135 73.419 255.135 76.862 258.587L103.345 285.07C106.797 288.522 106.797 294.101 103.345 297.552C101.623 299.273 99.363 300.138 97.103 300.138Z" fill="white"/>
<path d="M220.69 273.655C218.43 273.655 216.17 272.79 214.449 271.069L187.966 244.586C184.514 241.134 184.514 235.555 187.966 232.104C191.409 228.652 197.005 228.652 200.448 232.104L226.931 258.587C230.383 262.039 230.383 267.618 226.931 271.069C225.209 272.79 222.95 273.655 220.69 273.655Z" fill="white"/>
<path d="M194.207 300.138C191.947 300.138 189.687 299.273 187.966 297.552C184.514 294.1 184.514 288.521 187.966 285.07L214.449 258.587C217.892 255.135 223.488 255.135 226.931 258.587C230.383 262.039 230.383 267.618 226.931 271.069L200.448 297.552C198.727 299.273 196.467 300.138 194.207 300.138Z" fill="white"/>
<path d="M150.069 150.069C145.196 150.069 141.241 146.114 141.241 141.241V79.448C141.241 74.575 145.196 70.62 150.069 70.62C154.942 70.62 158.897 74.575 158.897 79.448V141.241C158.897 146.114 154.942 150.069 150.069 150.069Z" fill="white"/>
<path d="M150.069 203.034C145.196 203.034 141.241 199.079 141.241 194.206V176.551C141.241 171.678 145.196 167.723 150.069 167.723C154.942 167.723 158.897 171.678 158.897 176.551V194.206C158.897 199.08 154.942 203.034 150.069 203.034Z" fill="white"/>
<path d="M379.586 88.276H291.31C286.437 88.276 282.482 84.321 282.482 79.448C282.482 74.575 286.437 70.62 291.31 70.62H379.586C384.459 70.62 388.414 74.575 388.414 79.448C388.414 84.321 384.459 88.276 379.586 88.276Z" fill="#DD352E"/>
<path d="M441.379 88.276H414.896C410.023 88.276 406.068 84.321 406.068 79.448C406.068 74.575 410.023 70.62 414.896 70.62H441.379C446.252 70.62 450.207 74.575 450.207 79.448C450.207 84.321 446.252 88.276 441.379 88.276Z" fill="#366DB6"/>
<path d="M441.379 123.586H353.103C348.23 123.586 344.275 119.631 344.275 114.758C344.275 109.885 348.23 105.93 353.103 105.93H441.379C446.252 105.93 450.207 109.885 450.207 114.758C450.207 119.631 446.252 123.586 441.379 123.586Z" fill="#75348B"/>
<path d="M317.793 123.586H291.31C286.437 123.586 282.482 119.631 282.482 114.758C282.482 109.885 286.437 105.93 291.31 105.93H317.793C322.666 105.93 326.621 109.885 326.621 114.758C326.621 119.631 322.666 123.586 317.793 123.586Z" fill="#57ABC1"/>
<path d="M379.586 158.897H291.31C286.437 158.897 282.482 154.942 282.482 150.069C282.482 145.196 286.437 141.241 291.31 141.241H379.586C384.459 141.241 388.414 145.196 388.414 150.069C388.414 154.942 384.459 158.897 379.586 158.897Z" fill="#25AE88"/>
<path d="M441.379 158.897H414.896C410.023 158.897 406.068 154.942 406.068 150.069C406.068 145.196 410.023 141.241 414.896 141.241H441.379C446.252 141.241 450.207 145.196 450.207 150.069C450.207 154.942 446.252 158.897 441.379 158.897Z" fill="#F76363"/>
<path d="M441.379 194.207H353.103C348.23 194.207 344.275 190.252 344.275 185.379C344.275 180.506 348.23 176.551 353.103 176.551H441.379C446.252 176.551 450.207 180.506 450.207 185.379C450.207 190.252 446.252 194.207 441.379 194.207Z" fill="#BF5A45"/>
<path d="M317.793 194.207H291.31C286.437 194.207 282.482 190.252 282.482 185.379C282.482 180.506 286.437 176.551 291.31 176.551H317.793C322.666 176.551 326.621 180.506 326.621 185.379C326.621 190.252 322.666 194.207 317.793 194.207Z" fill="#F2ECBF"/>
<path d="M441.379 300.138H353.103C348.23 300.138 344.275 296.183 344.275 291.31C344.275 286.437 348.23 282.482 353.103 282.482H441.379C446.252 282.482 450.207 286.437 450.207 291.31C450.207 296.183 446.252 300.138 441.379 300.138Z" fill="#25AE88"/>
<path d="M317.793 300.138H291.31C286.437 300.138 282.482 296.183 282.482 291.31C282.482 286.437 286.437 282.482 291.31 282.482H317.793C322.666 282.482 326.621 286.437 326.621 291.31C326.621 296.183 322.666 300.138 317.793 300.138Z" fill="#DD352E"/>
<path d="M379.586 229.517H291.31C286.437 229.517 282.482 225.562 282.482 220.689C282.482 215.816 286.437 211.861 291.31 211.861H379.586C384.459 211.861 388.414 215.816 388.414 220.689C388.414 225.562 384.459 229.517 379.586 229.517Z" fill="#75348B"/>
<path d="M441.379 229.517H414.896C410.023 229.517 406.068 225.562 406.068 220.689C406.068 215.816 410.023 211.861 414.896 211.861H441.379C446.252 211.861 450.207 215.816 450.207 220.689C450.207 225.562 446.252 229.517 441.379 229.517Z" fill="#EBBA16"/>
<path d="M441.379 264.828H353.103C348.23 264.828 344.275 260.873 344.275 256C344.275 251.127 348.23 247.172 353.103 247.172H441.379C446.252 247.172 450.207 251.127 450.207 256C450.207 260.873 446.252 264.828 441.379 264.828Z" fill="#ED8A19"/>
<path d="M317.793 264.828H291.31C286.437 264.828 282.482 260.873 282.482 256C282.482 251.127 286.437 247.172 291.31 247.172H317.793C322.666 247.172 326.621 251.127 326.621 256C326.621 260.873 322.666 264.828 317.793 264.828Z" fill="#C5411E"/>
</svg>
